2718.55
2799.55
2548.71
2624.05
2770.03
2782.76
2692.05
2823.64
2830.63
2773.97
2782.92
2816.06
2848.45
2858.11
2767.47
2782.61
2614.63
2879.0
2828.42
2274.56
2814.47
2684.82
2790.97
2723.93
2899.5
2611.05
2690.82
2719.26
2725.79
2822.87
2894.42
2750.0
2754.74
2735.26
2857.26
