622.811
621.84
621.917
620.353
623.574
627.875
621.462
626.613
625.208
626.317
624.124
621.482
622.805
623.533
623.056
623.069
622.925
623.845
625.753
623.156
627.221
623.845
622.572
622.818
623.51
624.756
624.283
625.633
623.001
622.83
622.82
625.524
624.265
626.129
622.641
