1922.74
972.843
963.786
0.0
1904.23
1909.64
1457.17
1860.04
1923.13
1922.07
1952.03
1960.11
1784.76
1885.34
1930.13
970.529
1898.66
1883.04
1908.43
1890.31
949.457
944.957
1894.89
959.529
973.543
1903.79
1915.07
1937.89
1377.91
1936.51
1915.93
1833.89
964.229
958.586
959.171
