418.383
356.698
248.042
277.559
564.237
603.2
566.211
577.793
312.824
396.846
597.642
316.142
592.022
351.185
563.278
389.642
547.508
484.529
439.888
407.615
609.417
392.214
682.411
429.966
340.745
598.03
389.421
0.0
325.065
281.237
195.453
351.366
195.252
255.661
532.331
