1.36885
1.41915
1.44196
1.29852
1.41364
1.41804
1.47613
1.35447
1.41277
1.39443
1.4043
1.29535
1.43312
1.42939
1.4275
1.45179
1.47838
1.466
1.41245
1.43264
1.37868
1.4257
1.42286
1.42338
1.36835
1.39847
1.45158
1.4349
1.37519
1.40053
1.44511
1.39217
1.41832
1.45691
1.43717
