3166.14
3375.42
3211.97
2005.24
3152.51
3182.46
3107.21
2543.6
3148.63
3196.5
3123.77
3087.0
3195.91
3178.45
3255.42
3196.45
3180.83
3185.96
3290.91
3139.31
3212.39
3294.29
3170.51
3161.88
3329.84
3126.94
3143.08
3297.81
3366.21
3242.0
3263.8
3459.31
3155.16
3193.15
3156.03
