1.09172
1.09747
1.09221
1.09753
1.10157
1.10147
1.08349
1.08849
1.07736
1.09205
1.08122
1.09714
1.09742
1.08277
1.08146
1.0949
1.07312
1.09503
1.09116
1.08779
1.08541
1.07532
1.08536
1.09046
1.09598
1.09181
1.07166
1.09552
1.10531
1.0761
1.09689
1.09679
1.09758
1.09042
1.08344
