1079.3
1080.67
1080.39
723.995
801.886
1076.38
984.85
1079.39
715.26
810.897
1080.64
630.171
1055.36
989.776
647.125
1078.12
628.977
650.564
1080.56
539.413
1079.66
539.749
1080.43
1079.38
810.034
1079.45
539.498
1068.76
1074.17
805.436
1075.19
717.018
447.97
1078.06
536.618
