787.845
788.832
788.642
526.076
588.009
785.717
722.188
787.917
522.108
591.915
788.825
460.0
770.362
722.487
474.531
786.977
459.121
474.885
788.754
393.743
788.111
393.993
788.667
787.892
591.291
787.951
393.805
783.705
787.687
590.618
788.43
525.785
328.493
786.938
393.498
