1.54733
1.55111
1.53623
1.53507
1.52378
1.58966
1.59795
1.56724
1.51371
1.58308
1.55679
1.50697
1.54549
1.54563
1.55442
1.54973
1.25413
1.54599
1.52291
1.58411
1.59186
1.48164
1.22763
1.50416
1.53874
1.51748
1.52321
1.5261
1.5096
1.53193
1.53204
1.50513
1.60816
1.47769
1.55794
