1.44929
1.49573
1.45301
1.43804
1.42325
1.47932
1.42511
1.46558
1.45328
1.47072
1.45247
1.44011
1.427
1.43666
1.51796
1.42851
1.31639
1.39004
1.47325
1.46434
1.46234
1.45497
1.22212
1.45805
1.46021
1.48875
1.42403
1.43297
1.47842
1.43829
1.3864
1.4471
1.46644
0.0
1.49973
