3337.86
3412.78
3255.98
3398.1
3429.64
3319.13
3332.23
3291.59
3290.38
3419.55
3286.72
3411.63
3320.21
3412.29
3294.9
3294.34
2091.03
3401.65
3367.97
3379.03
3324.48
3261.98
1420.0
3227.5
3338.18
3286.91
3272.94
3293.51
3300.74
3351.54
3512.6
3245.65
3315.53
0.0
3225.29
