1339.93
2554.36
1314.21
2004.35
1992.48
2609.43
2681.55
2316.0
1593.05
2496.64
2584.53
2503.07
1292.52
2506.83
1294.5
2522.43
2445.74
2242.95
2596.35
2518.29
1328.6
2560.67
2501.6
2447.88
1317.52
1202.45
2512.33
2520.18
2518.75
1825.72
1318.29
2137.11
1069.21
1965.1
2547.14
