318.546
624.166
317.995
475.738
473.981
626.628
629.409
627.236
437.855
630.732
626.451
626.029
317.8
628.417
317.454
627.283
629.197
629.594
626.121
625.169
319.347
626.004
630.222
628.231
318.638
319.378
622.313
627.477
624.869
476.793
359.097
631.373
318.941
475.721
624.002
