225.09
429.1
220.771
320.671
334.711
438.348
450.464
370.534
267.612
419.405
413.492
420.485
217.128
421.114
217.458
423.733
410.856
358.846
415.386
423.038
223.186
430.161
420.237
391.632
221.327
201.996
422.042
403.196
402.972
292.092
221.455
324.814
179.614
330.112
427.888
