1.146
1.15822
1.1466
1.12445
1.14326
1.16826
1.10562
1.13326
1.15124
1.11838
1.11638
1.11418
1.14917
1.13521
1.14936
1.14714
1.13955
1.14367
1.09922
1.1484
1.1431
1.15835
1.13133
1.14069
1.13404
1.14123
1.13984
1.14005
1.10975
1.13855
1.13168
1.15602
1.1032
1.10807
1.13242
