1874.0
2495.98
2475.84
2222.22
2396.48
2399.24
1227.0
1226.05
2399.05
1815.62
1230.69
1231.14
2402.29
2403.55
2401.57
2394.4
2409.29
2487.38
1228.14
2416.32
2389.79
2394.0
2383.86
2380.07
2461.62
2407.76
2358.84
2500.18
1219.34
2380.09
2478.91
2381.62
1214.88
1215.9
2384.23
