369.239
490.539
485.121
430.34
475.28
480.037
249.627
247.71
486.954
368.023
248.176
251.568
489.204
488.311
482.137
482.893
482.827
487.977
249.9
477.606
483.531
480.453
469.925
474.37
488.69
486.461
477.389
492.554
246.938
476.712
486.127
482.941
247.784
244.446
463.934
