1.08057
1.0719
1.07012
1.08015
1.06894
1.0777
1.06771
1.08734
1.07606
1.08487
1.0806
1.08968
1.088
1.06787
1.08028
1.07869
1.06932
1.07669
1.0785
1.0765
1.06873
1.0884
1.07756
1.06801
1.07887
1.08085
1.06934
1.08134
1.07079
1.08686
1.0808
1.06823
1.0737
1.08368
1.07115
