1.40679
1.40851
1.40057
1.40271
1.4199
1.39263
1.40975
1.43497
1.41782
1.40321
1.39494
1.41792
1.38387
1.40048
1.42356
1.40314
1.41783
1.14471
1.39137
1.37818
1.38595
1.37407
1.43338
1.41874
1.39843
1.34286
1.39053
1.39707
1.4209
1.41362
1.41846
1.22697
1.38451
1.44921
1.39053
