1093.85
1110.63
1096.86
1088.99
1091.58
1084.83
1084.25
1085.37
1100.51
1089.49
1087.83
1097.05
1070.92
1095.0
1084.89
1086.99
1090.48
747.464
1088.98
1081.11
1079.37
1090.74
1089.2
1089.36
1088.14
1037.34
1097.75
1082.9
1092.66
1096.87
1081.33
794.125
1085.94
1093.88
1072.54
