1.1277
1.12081
1.13943
1.13094
1.20967
1.48567
1.5715
1.23983
1.58837
1.57355
1.58109
1.28979
1.64935
1.639
1.60843
1.65351
1.60397
1.25288
1.55709
1.57264
1.13405
1.60568
1.66078
1.61974
1.42735
1.69413
1.61634
1.51365
1.47691
1.62088
1.62213
1.61236
1.58617
1.62097
1.7125
