1835.49
1819.72
1838.79
1803.04
2468.27
2964.87
3224.77
2289.18
3101.59
3213.16
3214.23
2292.17
3314.43
3251.47
3152.27
3273.52
3169.56
2257.44
2955.34
3306.04
1837.04
3006.29
3316.15
3214.81
3157.51
3277.84
3246.11
3197.52
3341.29
3233.28
3384.08
3316.8
3408.75
3131.82
3316.29
