1853.47
1805.54
1850.89
1775.61
2496.86
2903.81
3209.96
2171.24
3069.51
3191.23
3190.49
2185.11
3329.38
3250.45
3148.66
3270.13
3110.15
2131.12
2885.75
3318.93
1852.93
2960.04
3322.88
3190.03
3168.72
3288.72
3216.58
3153.94
3328.23
3168.83
3370.43
3294.9
3403.36
3044.8
3231.66
