1707.68
1634.29
1704.22
1515.18
2326.6
2937.3
3214.52
2367.7
3090.9
3186.89
3189.18
2413.63
3233.6
3213.92
3136.94
3238.09
3123.29
2337.68
2922.66
3257.59
1676.23
2974.23
3277.61
3201.94
3112.74
3231.77
3171.31
3183.74
3291.1
3172.88
3306.89
3212.81
3292.82
3122.42
3228.35
