1774.27
1755.06
1814.12
1772.79
2447.6
2957.44
3266.13
2402.49
3139.47
3198.78
3262.91
2373.43
3305.77
3232.84
3149.13
3254.16
3180.12
2343.5
2961.42
3332.83
1815.67
3023.88
3297.91
3260.41
3224.69
3292.58
3229.61
3250.35
3370.19
3219.77
3366.83
3285.25
3372.05
3129.38
3278.53
