1327.7
1286.94
1327.13
1330.27
1326.8
1326.32
1330.15
1330.17
1327.25
1376.33
1374.05
1372.93
1368.74
1330.07
1372.53
1375.29
1322.5
1372.07
1373.05
1332.05
1332.5
1329.18
1374.9
1373.41
1373.66
1375.5
1373.98
1330.68
1325.82
1373.53
1375.52
1374.69
1328.55
1373.09
1327.97
