1.38194
1.50886
1.1731
1.17246
1.40072
1.45713
1.4281
1.43978
1.45181
1.38294
1.38365
1.19092
1.42039
1.49916
1.41334
1.54244
1.2779
1.22626
1.54513
1.16839
1.27399
1.58192
1.18927
1.18866
1.47124
1.51798
1.38962
1.53434
1.18293
1.34574
1.54531
1.25718
1.44692
1.51663
1.59476
