1.4635
1.15959
1.3972
1.11688
1.4661
1.55715
1.15624
1.42736
1.28991
1.55761
1.11024
1.45826
1.12916
1.1628
1.4017
1.11267
1.39436
1.17581
1.37893
1.51125
1.33756
1.42865
1.10717
1.4139
1.2225
1.28473
1.45939
1.12486
1.41412
1.43382
1.30232
1.09557
1.36581
1.49463
1.13697
