1.10541
1.15525
1.15073
1.14484
1.13998
1.14203
1.1074
1.14247
1.15749
1.10461
1.13677
1.14515
1.1297
1.13985
1.13897
1.15081
1.09176
1.10896
1.11568
1.12926
1.13018
1.1417
1.13118
1.10809
1.14838
1.14478
1.14949
1.14501
1.15117
1.13893
1.13137
1.11223
1.09124
1.10968
1.14113
