1.78152
1.33324
1.23925
1.65878
1.71613
1.73243
1.70152
1.53431
1.6245
1.3951
1.2599
1.64981
1.33328
1.24111
1.6508
1.65927
1.69889
1.6661
1.4046
1.6896
1.71518
1.72205
1.66715
1.66621
1.71335
1.4848
1.61894
1.55298
1.17861
1.69022
1.75477
1.70681
1.38833
1.70965
1.70621
