3475.57
2183.88
1811.23
3203.78
3459.89
3388.33
3416.53
3321.62
3442.3
2099.97
1803.34
3385.15
2296.93
1798.14
3590.83
3250.73
3398.97
3375.58
2435.07
3429.37
3385.55
3265.68
3274.31
3421.04
3375.03
2745.38
3310.67
3384.33
1629.56
3493.09
3373.31
3559.94
2463.86
3419.02
3396.66
