624.977
294.526
223.261
527.137
634.725
635.503
623.384
521.643
585.487
275.678
216.343
576.345
319.055
219.584
662.568
599.154
607.464
614.315
346.448
644.729
586.9
612.065
599.623
678.048
612.885
426.561
650.676
535.959
202.758
583.996
589.129
652.424
372.449
649.186
656.739
