782.366
445.991
354.16
703.387
803.614
795.179
789.021
676.278
752.405
431.765
367.299
744.486
490.101
351.729
822.196
745.977
771.012
784.598
503.308
801.545
752.353
770.434
762.771
832.953
777.3
572.776
797.077
679.404
301.521
775.798
755.121
814.829
525.915
795.394
813.967
