1.58753
1.40906
1.14304
1.5668
1.61051
1.60271
1.1184
1.57876
1.56934
1.14734
1.60424
0.0
1.60292
1.11932
1.35896
1.57582
1.38069
1.66114
1.0911
1.54383
1.50271
1.14987
1.67668
1.09729
1.63015
1.3695
1.17815
1.67928
1.10428
1.65207
1.37737
1.12524
1.59695
1.36872
1.37117
