1.15278
1.20165
1.13738
1.15549
1.15392
1.16979
1.14624
1.15562
1.14763
1.13813
1.15208
1.15633
1.15256
1.168
1.15201
1.15578
1.14256
1.14627
1.14678
1.14857
1.14524
1.14088
1.12875
1.15492
1.14221
1.17137
1.13247
1.13451
1.15077
1.17981
1.1454
1.18
1.18842
1.154
1.13522
