3239.93
3402.65
3445.32
3531.06
3341.27
3535.95
3334.13
3392.44
3046.58
3250.63
3005.61
3356.54
3563.54
3443.93
3143.97
3456.17
3313.82
3481.14
3358.63
3283.21
3339.26
3400.67
3459.18
3483.82
3489.53
3402.75
3301.63
3354.75
3263.73
3306.72
3536.73
3378.4
3399.78
3434.39
3286.35
