616.192
630.281
606.525
642.291
569.552
560.606
648.706
619.861
683.496
599.372
587.129
590.969
599.693
210.37
495.396
576.921
548.813
632.378
616.81
678.102
640.284
366.502
652.939
627.703
651.801
637.931
658.85
623.668
656.04
674.765
322.113
650.557
643.071
332.819
606.625
