1.0804
1.09057
1.07749
1.0765
1.07887
1.08585
1.09168
1.07776
1.0886
1.08466
1.08916
1.07481
1.0895
1.08966
1.08673
1.07346
1.08706
1.08764
1.09176
1.08399
1.09294
1.0874
1.08008
1.09611
1.08326
1.07255
1.07513
1.08988
1.07271
1.06896
1.08375
1.08846
1.07206
1.07258
1.09467
