368.509
368.0
368.347
368.369
368.56
368.543
368.401
368.514
368.42
368.426
368.418
368.426
368.494
368.398
368.136
368.256
368.366
368.443
368.418
368.514
368.506
366.94
368.176
367.577
368.486
368.33
368.526
368.503
368.457
368.145
367.997
368.315
368.435
368.375
368.514
