493.442
470.619
182.214
528.454
406.837
0.0
0.0
465.966
182.418
0.0
0.0
0.0
244.179
0.0
0.0
518.05
439.92
222.114
217.821
532.454
0.0
0.0
0.0
0.0
0.0
0.0
486.744
0.0
0.0
0.0
485.766
0.0
467.504
0.0
0.00333306
