615.876
637.651
671.616
619.49
633.524
664.342
659.37
651.77
601.543
601.341
615.334
612.049
598.911
617.522
425.304
520.994
602.95
591.462
630.84
643.886
636.397
637.683
639.085
574.185
674.468
437.676
651.01
617.745
616.172
616.001
646.228
620.924
263.96
590.467
276.411
