1442.95
1428.22
1438.02
453.605
635.302
475.251
453.098
361.183
453.919
1447.31
1439.47
1085.01
1351.77
1438.95
1440.64
1441.2
1348.23
1439.92
1285.31
495.516
361.009
360.889
361.014
360.155
454.026
635.188
994.435
1439.0
1439.06
1440.81
1439.54
906.249
905.423
1086.1
1174.11
