1245.84
1248.34
1244.88
588.265
1246.66
0.0
0.0
1170.07
0.0
588.265
1205.76
1209.76
1209.97
1205.36
0.0
238.119
1242.97
475.952
1245.7
1247.64
1248.05
0.0
1247.47
1138.9
476.214
0.0
832.062
1243.77
0.0
1243.8
0.0
1244.72
1169.09
1208.65
0.0
