318.262
318.614
318.409
318.409
318.246
318.666
318.669
318.71
318.761
318.537
319.009
318.95
319.402
317.908
318.142
318.841
319.297
318.74
317.546
318.893
318.388
316.979
318.617
318.318
318.806
319.3
318.269
318.55
318.522
319.43
319.428
319.225
317.914
318.589
317.776
