1.23117
1.32051
1.32013
1.27487
1.4647
1.4849
1.64884
1.37025
1.50237
1.5695
1.58091
1.29464
1.59366
1.73281
1.45521
1.62857
1.57584
1.52358
1.62926
1.53488
1.66189
1.26342
1.20108
1.13318
1.6576
1.71317
1.60099
1.71376
1.60931
1.25103
1.60858
1.27855
1.52732
1.40615
1.21301
