1.69976
1.52661
1.25143
1.66035
1.24418
1.63205
1.16451
1.5497
1.61072
1.71491
1.59768
1.29983
1.71346
1.66297
1.2219
1.64787
1.64478
1.59616
1.64499
1.2421
1.16817
1.64525
1.63508
1.55535
1.21473
1.1889
1.56611
1.17484
1.23379
1.45216
1.68423
1.65798
1.19882
1.16679
1.6177
