3307.45
3204.36
2286.27
3313.51
1690.23
3307.2
1997.33
3249.29
3310.1
3273.7
3246.51
2398.23
3268.24
3279.95
2123.85
3247.67
3202.35
3138.7
3270.94
1789.72
1768.6
3284.11
3211.47
3134.92
2023.03
1933.18
3253.74
2251.79
2732.95
3243.77
3501.63
3439.83
1792.56
1605.44
3333.04
