1.55006
1.59229
1.57848
1.50243
1.56711
1.54562
1.40275
1.26108
1.38975
1.50694
1.55342
1.52856
1.53482
1.55165
1.48035
1.54392
1.56154
1.5729
1.52851
1.52996
1.51991
1.52247
1.55375
1.58146
1.21541
1.55621
1.54976
1.55176
1.54149
1.57936
1.57308
1.52291
1.52889
1.53795
1.56439
