786.226
817.296
784.029
823.574
779.835
795.374
441.909
368.22
540.179
814.866
791.429
828.061
816.111
796.117
699.304
782.386
791.006
794.036
808.025
763.324
809.635
810.63
787.444
809.783
170.728
785.397
796.64
782.414
836.794
794.058
837.072
771.15
793.871
811.076
835.507
